F 15221a4a283f5d1a4874d6c7e795.                                                                                                                                                                                   	15221a4a283f5d1a4874d6c7e7958ae7edff78154fa0cc3e7cd8df7801a11be2-comps-Server-HighAvailability.x86_64.xml.gz
F 25acdc0dd2381926933c45211da.bz                                                                                                                                                                                  	25acdc0dd2381926933c45211da332a570002215f854c59f60508a8cf06cd3f9-filelists.sqlite.bz2
F 7fb92a3db996cdf1757c5cf03dce.g                                                                                                                                                                                  	7fb92a3db996cdf1757c5cf03dce24c28a94bdab7592edd9baa22b6d2124ac94-other.xml.gz
F 8e531645b901cfd8b316e12691f.bz                                                                                                                                                                                  	8e531645b901cfd8b316e12691f2d5b1ceec6f8cea0201d396d216ff16c9e368-primary.sqlite.bz2
F 945ae25ec04b393d7a38f1968c22.g                                                                                                                                                                                  	945ae25ec04b393d7a38f1968c225526091e8cd727c169d420e9cc71b3764660-primary.xml.gz
F 9a01dffeb81701eaadce05667571.gz                                                                                                                                                                                 	9a01dffeb81701eaadce05667571ab3957b9943e6695ff12cc52ed5f7f08ab3d-productid.gz
F 9d4698a9d518e16bfb4c5a281805.g                                                                                                                                                                                  	9d4698a9d518e16bfb4c5a281805eecfbc5d65e690bc8e122d10c3348bc1c30a-filelists.xml.gz
F e93385db5561a9121ec9347da1e.bz                                                                                                                                                                                  	e93385db5561a9121ec9347da1e0eecbce8e4544dc9fd044600a7d1a343d7ca7-other.sqlite.bz2
F f21843c67050b496bcd52174a92.xm                                                                                                                                                                                  	f21843c67050b496bcd52174a9255f6bf60b22a94ee01fc91323e4cc98673fb3-comps-Server-HighAvailability.x86_64.xml
F productid                                                                                                                                                                                                       	productid
F repomd.xml                                                                                                                                                                                                      	repomd.xml
